A Guide to Data Analysis using R
…
2.1.2 xls or xlsx

To read Excel files, we install another package readxl.

install.packages("readxl")

Let us use an excel dataset from World Bank (accessed on August 31, 2020). Download it here.

library(readxl)
df.xls <- read_excel("./data/world_bank_life_exp.xls")
head(df.xls)
#> # A tibble: 6 x 64
#>   `Country Name` `Country Code` `Indicator Name` `Indicator Code` `1960` `1961`
#>   <chr>          <chr>          <chr>            <chr>             <dbl>  <dbl>
#> 1 Aruba          ABW            Life expectancy~ SP.DYN.LE00.IN     65.7   66.1
#> 2 Afghanistan    AFG            Life expectancy~ SP.DYN.LE00.IN     32.4   33.0
#> 3 Angola         AGO            Life expectancy~ SP.DYN.LE00.IN     37.5   37.8
#> 4 Albania        ALB            Life expectancy~ SP.DYN.LE00.IN     62.3   63.3
#> 5 Andorra        AND            Life expectancy~ SP.DYN.LE00.IN     NA     NA  
#> # ... with 1 more row, and 58 more variables: `1962` <dbl>, `1963` <dbl>,
#> #   `1964` <dbl>, `1965` <dbl>, `1966` <dbl>, `1967` <dbl>, `1968` <dbl>,
#> #   `1969` <dbl>, `1970` <dbl>, `1971` <dbl>, `1972` <dbl>, `1973` <dbl>,
#> #   `1974` <dbl>, `1975` <dbl>, `1976` <dbl>, `1977` <dbl>, `1978` <dbl>,
#> #   `1979` <dbl>, `1980` <dbl>, `1981` <dbl>, `1982` <dbl>, `1983` <dbl>,
#> #   `1984` <dbl>, `1985` <dbl>, `1986` <dbl>, `1987` <dbl>, `1988` <dbl>,
#> #   `1989` <dbl>, `1990` <dbl>, `1991` <dbl>, `1992` <dbl>, `1993` <dbl>,
#> #   `1994` <dbl>, `1995` <dbl>, `1996` <dbl>, `1997` <dbl>, `1998` <dbl>,
#> #   `1999` <dbl>, `2000` <dbl>, `2001` <dbl>, `2002` <dbl>, `2003` <dbl>,
…
Note that you can specify this file location on your computer. You may also notice that the output from head function is a bit different this time. But don’t be afraid. It’s nothing wrong but shows a variant of the dataset in R.

Alternatively, you can create a folder named `data` in the same directory where your R script file is stored. For this to work, first close `RStudio` if it is opened. Double-click on the R Script to open it in RStudio. You will notice that the directory changes where your R script is stored.

If you download it from World Bank web API, you will notice that the first two rows describe data sources and indicators. This time, we will import the raw file with two invalid rows. Download the raw file here. Check the file in a spreadsheet program like Excel before inputting it into R.

In the example below, we will skip these two rows when we read the excel file. We can set this by specifying skip = 2.

df.xls <- read_excel("./data/world_bank_life_exp_raw.xls", skip = 2)
head(df.xls)
#> # A tibble: 6 x 64
#>   `Country Name` `Country Code` `Indicator Name` `Indicator Code` `1960` `1961`
#>   <chr>          <chr>          <chr>            <chr>             <dbl>  <dbl>
#> 1 Aruba          ABW            Life expectancy~ SP.DYN.LE00.IN     65.7   66.1
#> 2 Afghanistan    AFG            Life expectancy~ SP.DYN.LE00.IN     32.4   33.0
#> 3 Angola         AGO            Life expectancy~ SP.DYN.LE00.IN     37.5   37.8
#> 4 Albania        ALB            Life expectancy~ SP.DYN.LE00.IN     62.3   63.3
#> 5 Andorra        AND            Life expectancy~ SP.DYN.LE00.IN     NA     NA  
#> # ... with 1 more row, and 58 more variables: `1962` <dbl>, `1963` <dbl>,
#> #   `1964` <dbl>, `1965` <dbl>, `1966` <dbl>, `1967` <dbl>, `1968` <dbl>,
#> #   `1969` <dbl>, `1970` <dbl>, `1971` <dbl>, `1972` <dbl>, `1973` <dbl>,
#> #   `1974` <dbl>, `1975` <dbl>, `1976` <dbl>, `1977` <dbl>, `1978` <dbl>,
#> #   `1979` <dbl>, `1980` <dbl>, `1981` <dbl>, `1982` <dbl>, `1983` <dbl>,
#> #   `1984` <dbl>, `1985` <dbl>, `1986` <dbl>, `1987` <dbl>, `1988` <dbl>,
#> #   `1989` <dbl>, `1990` <dbl>, `1991` <dbl>, `1992` <dbl>, `1993` <dbl>,
#> #   `1994` <dbl>, `1995` <dbl>, `1996` <dbl>, `1997` <dbl>, `1998` <dbl>,
#> #   `1999` <dbl>, `2000` <dbl>, `2001` <dbl>, `2002` <dbl>, `2003` <dbl>,
…
All observations with negative acs_k3 come from the district number, 140. let’s list all observations in that district.

## we check all observations for district 140
elemapi %>% 
  filter(dnum == 140) %>% 
  select(dnum, snum, api00, acs_k3, meals, full)
#> # A tibble: 6 x 6
#>    dnum  snum api00 acs_k3 meals  full
#>   <dbl> <dbl> <dbl>  <dbl> <dbl> <dbl>
#> 1   140   600   843    -20    NA    91
#> 2   140   596   800    -19    NA    94
#> 3   140   611   857    -20    NA   100
#> 4   140   595   713    -21    63    92
#> 5   140   592   804    -21    NA    97
#> # ... with 1 more row
…
