A Guide to Data Analysis using R
…
All observations with negative acs_k3 come from the district number, 140. let’s list all observations in that district.

## we check all observations for district 140
elemapi %>% 
  filter(dnum == 140) %>% 
  select(dnum, snum, api00, acs_k3, meals, full)
#> # A tibble: 6 x 6
#>    dnum  snum api00 acs_k3 meals  full
#>   <dbl> <dbl> <dbl>  <dbl> <dbl> <dbl>
#> 1   140   600   843    -20    NA    91
#> 2   140   596   800    -19    NA    94
#> 3   140   611   857    -20    NA   100
#> 4   140   595   713    -21    63    92
#> 5   140   592   804    -21    NA    97
#> # ... with 1 more row
…
